// =============================================================================
// Scilab ( https://www.scilab.org/ ) - This file is part of Scilab
// Copyright (C) 2013 - Scilab Enterprises
//
//  This file is distributed under the same license as the Scilab package.
// =============================================================================
// <-- CLI SHELL MODE -->
// <-- Non-regression test for bug 12971 -->
//
// <-- GitLab URL -->
// https://gitlab.com/scilab/scilab/-/issues/12971
//
// <-- Short Description -->
// getURL() downloaded file name is wrong
curdir = pwd();
cd(TMPDIR);
filePath = getURL("www.scilab.org");
expectedFilePath = fullfile(TMPDIR, "index.html");
assert_checkequal(filePath, expectedFilePath);
assert_checktrue(isfile(filePath));
deletefile(filePath);
cd(curdir);
