// =============================================================================
// Scilab ( https://www.scilab.org/ ) - This file is part of Scilab
// Copyright (C) 2009 - DIGITEO - Pierre MARECHAL <pierre.marechal@scilab.org>
//
//  This file is distributed under the same license as the Scilab package.
// =============================================================================
// <-- ENGLISH IMPOSED -->
// <-- CLI SHELL MODE -->
load("SCI/modules/atoms/macros/atoms_internals/lib");
exec("SCI/modules/atoms/tests/unit_tests/atomsTestUtils.sce");
// If previous test did not end properly, restore, else backup config file
atomsRestoreConfig(%T);
atomsSaveConfig();
// Do not use the autoload system
atomsSetConfig("autoloadAddAfterInstall","False");
atomsSetConfig("Verbose" ,"False");
// Load the 1st scenario : See scene10.test.atoms.scilab.org.txt
// =============================================================================
atomsLoadTestScene("scene10");
Scanning repository file://TMPDIR/scene10 ... Done
// Install toolbox_5 & toolbox_3
// =============================================================================
atomsInstall("toolbox_5V6","user");
atomsInstall("toolbox_3V6","user");
// -----------------------------------------------------------------------------
ref = [ "-" "U" "toolbox_1V6" "1.0-1" "user" ;
"-" "P" "toolbox_5V6" "1.0-1" "user" ;
"-" "P" "toolbox_4V6" "1.0-1" "user" ;
"-" "P" "toolbox_2V6" "1.0-1" "user" ;
"-" "P" "toolbox_3V6" "1.0-1" "user" ;
"-" "P" "toolbox_2V6" "2.0-1" "user" ];
if or(atomsRemoveList(["toolbox_1V6"]      ,"user")<>ref) then bugmes();quit;end
if or(atomsRemoveList(["toolbox_1V6" "1.0"],"user")<>ref) then bugmes();quit;end
// -----------------------------------------------------------------------------
ref = [ "-" "U" "toolbox_2V6" "1.0-1" "user" ;
"-" "P" "toolbox_5V6" "1.0-1" "user" ;
"-" "P" "toolbox_4V6" "1.0-1" "user" ;
"~" "C" "toolbox_1V6" "1.0-1" "user" ];
if or(atomsRemoveList(["toolbox_2V6" "1.0"],"user")<>ref) then bugmes();quit;end
// -----------------------------------------------------------------------------
ref = [ "-" "U" "toolbox_2V6" "2.0-1" "user" ;
"-" "P" "toolbox_3V6" "1.0-1" "user" ;
"~" "C" "toolbox_1V6" "1.0-1" "user" ];
if or(atomsRemoveList(["toolbox_2V6" "2.0"],"user")<>ref) then bugmes();quit;end
// -----------------------------------------------------------------------------
ref = [ "-" "U" "toolbox_2V6" "2.0-1" "user" ;
"-" "U" "toolbox_2V6" "1.0-1" "user" ;
"-" "P" "toolbox_3V6" "1.0-1" "user" ;
"-" "C" "toolbox_1V6" "1.0-1" "user" ;
"-" "P" "toolbox_5V6" "1.0-1" "user" ;
"-" "P" "toolbox_4V6" "1.0-1" "user" ];
if or(atomsRemoveList(["toolbox_2V6"],"user")<>ref) then bugmes();quit;end
// -----------------------------------------------------------------------------
ref = [ "-" "U" "toolbox_2V6" "2.0-1" "user" ;
"-" "U" "toolbox_2V6" "1.0-1" "user" ;
"-" "U" "toolbox_4V6" "1.0-1" "user" ;
"-" "P" "toolbox_3V6" "1.0-1" "user" ;
"-" "C" "toolbox_1V6" "1.0-1" "user" ;
"-" "P" "toolbox_5V6" "1.0-1" "user" ];
if or(atomsRemoveList(["toolbox_2V6";"toolbox_4V6"],"user")<>ref) then bugmes();quit;end
// Remove toolbox_5 & toolbox_3
// =============================================================================
atomsRemove("toolbox_5V6","user");
atomsRemove("toolbox_3V6","user");
// no module should be installed
if ~isempty( atomsGetInstalled() ) then bugmes();quit;end
// Restore original values
// =============================================================================
atomsRestoreConfig(%T);
atomsRepositorySetOfl(mgetl(SCI+"/modules/atoms/tests/unit_tests/repositories.orig"));
Scanning repository https://atoms.scilab.org/2023.0/TOOLBOXES/64 ... Done
